module github.com/bianchi2/bamboo-operator

go 1.13

require (
	github.com/go-logr/logr v0.1.0
	github.com/onsi/ginkgo v1.11.0
	github.com/onsi/gomega v1.8.1
	k8s.io/api v0.18.2
	k8s.io/apimachinery v0.18.2
	k8s.io/client-go v0.18.2
	sigs.k8s.io/controller-runtime v0.6.0
)
